%YAML 1.1
%TAG !u! tag:unity3d.com,2011:
--- !u!114 &11400000
MonoBehaviour:
  m_ObjectHideFlags: 0
  m_CorrespondingSourceObject: {fileID: 0}
  m_PrefabInternal: {fileID: 0}
  m_GameObject: {fileID: 0}
  m_Enabled: 1
  m_EditorHideFlags: 0
  m_Script: {fileID: 11500000, guid: d31df5031cc4e234eb7f57ed55da9827, type: 3}
  m_Name: New Enemy Stats
  m_EditorClassIdentifier: 
  enemyName: 
  enemyHeight: 0
  enemyHealth: 50
  moveSpd: 500
  aggroRange: 10
  bulletType: 0
  bulletDmg: 10
  fireRate: 10
  bulletRange: 10
  attackDelay: 1
