%YAML 1.1
%TAG !u! tag:unity3d.com,2011:
--- !u!114 &11400000
MonoBehaviour:
  m_ObjectHideFlags: 0
  m_CorrespondingSourceObject: {fileID: 0}
  m_PrefabInternal: {fileID: 0}
  m_GameObject: {fileID: 0}
  m_Enabled: 1
  m_EditorHideFlags: 0
  m_Script: {fileID: 11500000, guid: 9bce3a56fe9926f4cac3c2f80fba3384, type: 3}
  m_Name: BulletBotIdleState
  m_EditorClassIdentifier: 
  actions:
  - {fileID: 11400000, guid: 7f50ed08c5c20014f940795bc316e81c, type: 2}
  transitions:
  - decision: {fileID: 11400000, guid: 995814969d0a4a3419c122ff43a9ddb6, type: 2}
    trueState: {fileID: 11400000, guid: c60e7eea5f53a52458f97e424dc4d11b, type: 2}
    falseState: {fileID: 11400000, guid: e0fafca7482df6442be4f075a14a1ecf, type: 2}
  sceneGizmoColor: {r: 0.5, g: 0.5, b: 0.5, a: 1}
